%!PS-Adobe-2.0
%%Title: image-data-structure.ps
%%Creator: fig2dev Version 3.2 Patchlevel 3d
%%CreationDate: Wed Dec 11 15:09:17 2004
%%For: fspindle@jumeau.irisa.fr (Fabien Spindler,vista)
%%Orientation: Portrait
%%Pages: 1
%%BoundingBox: 0 0 612 792
%%BeginSetup
%%IncludeFeature: *PageSize Letter
%%EndSetup
%%Magnification: 1.0000
%%EndComments
/$F2psDict 200 dict def
$F2psDict begin
$F2psDict /mtrx matrix put
/col-1 {0 setgray} bind def
/col0 {0.000 0.000 0.000 srgb} bind def
/col1 {0.000 0.000 1.000 srgb} bind def
/col2 {0.000 1.000 0.000 srgb} bind def
/col3 {0.000 1.000 1.000 srgb} bind def
/col4 {1.000 0.000 0.000 srgb} bind def
/col5 {1.000 0.000 1.000 srgb} bind def
/col6 {1.000 1.000 0.000 srgb} bind def
/col7 {1.000 1.000 1.000 srgb} bind def
/col8 {0.000 0.000 0.560 srgb} bind def
/col9 {0.000 0.000 0.690 srgb} bind def
/col10 {0.000 0.000 0.820 srgb} bind def
/col11 {0.530 0.810 1.000 srgb} bind def
/col12 {0.000 0.560 0.000 srgb} bind def
/col13 {0.000 0.690 0.000 srgb} bind def
/col14 {0.000 0.820 0.000 srgb} bind def
/col15 {0.000 0.560 0.560 srgb} bind def
/col16 {0.000 0.690 0.690 srgb} bind def
/col17 {0.000 0.820 0.820 srgb} bind def
/col18 {0.560 0.000 0.000 srgb} bind def
/col19 {0.690 0.000 0.000 srgb} bind def
/col20 {0.820 0.000 0.000 srgb} bind def
/col21 {0.560 0.000 0.560 srgb} bind def
/col22 {0.690 0.000 0.690 srgb} bind def
/col23 {0.820 0.000 0.820 srgb} bind def
/col24 {0.500 0.190 0.000 srgb} bind def
/col25 {0.630 0.250 0.000 srgb} bind def
/col26 {0.750 0.380 0.000 srgb} bind def
/col27 {1.000 0.500 0.500 srgb} bind def
/col28 {1.000 0.630 0.630 srgb} bind def
/col29 {1.000 0.750 0.750 srgb} bind def
/col30 {1.000 0.880 0.880 srgb} bind def
/col31 {1.000 0.840 0.000 srgb} bind def

end
save
newpath 0 792 moveto 0 0 lineto 612 0 lineto 612 792 lineto closepath clip newpath
16.5 591.5 translate
1 -1 scale

/cp {closepath} bind def
/ef {eofill} bind def
/gr {grestore} bind def
/gs {gsave} bind def
/sa {save} bind def
/rs {restore} bind def
/l {lineto} bind def
/m {moveto} bind def
/rm {rmoveto} bind def
/n {newpath} bind def
/s {stroke} bind def
/sh {show} bind def
/slc {setlinecap} bind def
/slj {setlinejoin} bind def
/slw {setlinewidth} bind def
/srgb {setrgbcolor} bind def
/rot {rotate} bind def
/sc {scale} bind def
/sd {setdash} bind def
/ff {findfont} bind def
/sf {setfont} bind def
/scf {scalefont} bind def
/sw {stringwidth} bind def
/tr {translate} bind def
/tnt {dup dup currentrgbcolor
  4 -2 roll dup 1 exch sub 3 -1 roll mul add
  4 -2 roll dup 1 exch sub 3 -1 roll mul add
  4 -2 roll dup 1 exch sub 3 -1 roll mul add srgb}
  bind def
/shd {dup dup currentrgbcolor 4 -2 roll mul 4 -2 roll mul
  4 -2 roll mul srgb} bind def
/$F2psBegin {$F2psDict begin /$F2psEnteredState save def} def
/$F2psEnd {$F2psEnteredState restore end} def

$F2psBegin
10 setmiterlimit
 0.06000 0.06000 sc
%%Page: 1 1
%
% Fig objects follow
%
% Polyline
15.000 slw
n 4610 1904 m
 8656 1904 l gs col0 s gr 
% Polyline
n 4610 2409 m
 8656 2409 l gs col0 s gr 
% Polyline
n 4610 2915 m
 8656 2915 l gs col0 s gr 
% Polyline
n 5116 1398 m
 5116 5443 l gs col0 s gr 
% Polyline
n 6127 5443 m
 6127 1398 l gs col0 s gr 
% Polyline
n 6633 5443 m
 6633 1398 l gs col0 s gr 
% Polyline
n 7139 5443 m
 7139 1398 l gs col0 s gr 
% Polyline
n 7645 5443 m
 7645 1398 l gs col0 s gr 
% Polyline
n 8150 5443 m
 8150 1398 l gs col0 s gr 
% Polyline
n 4610 3421 m
 8656 3421 l gs col0 s gr 
% Polyline
n 4610 3926 m
 8656 3926 l gs col0 s gr 
% Polyline
n 4610 4432 m
 8656 4432 l gs col0 s gr 
% Polyline
n 4610 4938 m
 8656 4938 l gs col0 s gr 
% Polyline
n 4610 1398 m 8656 1398 l 8656 5443 l 4610 5443 l
 cp gs col0 s gr 
% Polyline
n 5622 1398 m
 5622 5443 l gs col0 s gr 
% Polyline
7.500 slw
gs  clippath
4625 1676 m 4625 1625 l 4522 1625 l 4598 1651 l 4522 1676 l cp
eoclip
n 2587 1651 m
 4610 1651 l gs col0 s gr gr

% arrowhead
n 4522 1676 m 4598 1651 l 4522 1625 l 4496 1651 l 4522 1676 l 
 cp gs 0.00 setgray ef gr  col0 s
% Polyline
15.000 slw
n 2335 1398 m 2840 1398 l 2840 5443 l 2335 5443 l
 cp gs col0 s gr 
% Polyline
n 2335 1904 m 2840 1904 l 2840 2409 l 2335 2409 l
 cp gs col0 s gr 
% Polyline
n 2335 2915 m 2840 2915 l 2840 3421 l 2335 3421 l
 cp gs col0 s gr 
% Polyline
n 2335 3926 m 2840 3926 l 2840 4432 l 2335 4432 l
 cp gs col0 s gr 
% Polyline
n 2335 4938 m 2840 4938 l 2840 5443 l 2335 5443 l
 cp gs col0 s gr 
% Polyline
7.500 slw
gs  clippath
4625 2182 m 4625 2131 l 4522 2131 l 4598 2157 l 4522 2182 l cp
eoclip
n 2587 2157 m
 4610 2157 l gs col0 s gr gr

% arrowhead
n 4522 2182 m 4598 2157 l 4522 2131 l 4496 2157 l 4522 2182 l 
 cp gs 0.00 setgray ef gr  col0 s
% Polyline
gs  clippath
2350 1676 m 2350 1625 l 2247 1625 l 2323 1651 l 2247 1676 l cp
eoclip
n 1070 1651 m
 2335 1651 l gs col0 s gr gr

% arrowhead
n 2247 1676 m 2323 1651 l 2247 1625 l 2221 1651 l 2247 1676 l 
 cp gs 0.00 setgray ef gr  col0 s
% Polyline
gs  clippath
4900 1350 m 4951 1350 l 4951 1247 l 4926 1323 l 4900 1247 l cp
eoclip
n 3852 766 m 4926 766 l
 4926 1335 l gs col0 s gr gr

% arrowhead
n 4900 1247 m 4926 1323 l 4951 1247 l 4926 1221 l 4900 1247 l 
 cp gs 0.00 setgray ef gr  col0 s
% Polyline
gs  clippath
8924 942 m 8924 841 l 8733 841 l 8885 892 l 8733 942 l cp
eoclip
n 7645 892 m
 8909 892 l gs col0 s gr gr

% arrowhead
15.000 slw
n 8733 942 m 8885 892 l 8733 841 l 8682 892 l 8733 942 l 
 cp gs 0.00 setgray ef gr  col0 s
% Polyline
7.500 slw
gs  clippath
9111 2424 m 9212 2424 l 9212 2233 l 9162 2385 l 9111 2233 l cp
eoclip
n 9162 892 m
 9162 2409 l gs col0 s gr gr

% arrowhead
15.000 slw
n 9111 2233 m 9162 2385 l 9212 2233 l 9162 2182 l 9111 2233 l 
 cp gs 0.00 setgray ef gr  col0 s
% Polyline
7.500 slw
gs  clippath
4625 2687 m 4625 2636 l 4522 2636 l 4598 2662 l 4522 2687 l cp
eoclip
n 2840 2662 m
 4610 2662 l gs col0 s gr gr

% arrowhead
n 4522 2687 m 4598 2662 l 4522 2636 l 4496 2662 l 4522 2687 l 
 cp gs 0.00 setgray ef gr  col0 s
% Polyline
n 438 1398 m 1070 1398 l 1070 1840 l 438 1840 l
 cp gs col1 s gr 
% Polyline
n 2777 513 m 3852 513 l 3852 956 l 2777 956 l
 cp gs col1 s gr 
/Helvetica ff 255.00 scf sf
2840 829 m
gs 1 -1 sc (bitmap) col0 sh gr
/Helvetica ff 255.00 scf sf
8214 703 m
gs 1 -1 sc (j) col0 sh gr
/Times-Roman ff 195.00 scf sf
6191 2725 m
gs 1 -1 sc (I[i][j]) col0 sh gr
/Times-Roman ff 180.00 scf sf
2398 2725 m
gs 1 -1 sc (row[i]) col0 sh gr
/Helvetica ff 255.00 scf sf
4105 5949 m
gs 1 -1 sc (CImage<Type> I) col1 sh gr
/Helvetica ff 255.00 scf sf
501 1714 m
gs 1 -1 sc (row) col0 sh gr
/Helvetica ff 255.00 scf sf
9035 1651 m
gs 1 -1 sc (i) col0 sh gr
$F2psEnd
rs
showpage
